<?xml version="1.0" encoding="UTF-16"?>
<!DOCTYPE svg PUBLIC "-//W3C//DTD SVG 1.1//EN" "http://www.w3.org/Graphics/SVG/1.1/DTD/svg11.dtd">
<!-- Creator: CorelDRAW X7 -->
<svg xmlns="http://www.w3.org/2000/svg" xml:space="preserve" width="212px" height="202px" version="1.1" style="shape-rendering:geometricPrecision; text-rendering:geometricPrecision; image-rendering:optimizeQuality; fill-rule:evenodd; clip-rule:evenodd"
viewBox="0 0 2157 2054"
 xmlns:xlink="http://www.w3.org/1999/xlink">
 <defs>
  <style type="text/css">
   <![CDATA[
    .fil0 {fill:#EDEDED}
    .fil1 {fill:#00AFEF;fill-opacity:0.039216}
   ]]>
  </style>
 </defs>
 <g id="Layer_x0020_1">
  <metadata id="CorelCorpID_0Corel-Layer"/>
  <rect class="fil0" width="2157" height="2054"/>
  <path class="fil1" d="M19 2054l-19 0 0 -47 803 -1547 -392 0 -3 0 -407 784 -1 -1 0 -356c66,0 119,-54 119,-120 0,-66 -53,-119 -119,-120l0 -647c567,0 1027,460 1027,1027 0,561 -450,1017 -1008,1027zm578 -800c67,0 120,53 120,120 0,66 -53,120 -120,120 -66,0 -120,-54 -120,-120 0,-67 54,-120 120,-120z"/>
 </g>
</svg>
